%YAML 1.1
%TAG !u! tag:unity3d.com,2011:
--- !u!1 &1565946511395478881
GameObject:
  m_ObjectHideFlags: 0
  m_CorrespondingSourceObject: {fileID: 0}
  m_PrefabInstance: {fileID: 0}
  m_PrefabAsset: {fileID: 0}
  serializedVersion: 6
  m_Component:
  - component: {fileID: 6447980059725848082}
  - component: {fileID: 6725769151484720118}
  m_Layer: 0
  m_Name: Event Sprite
  m_TagString: Untagged
  m_Icon: {fileID: 0}
  m_NavMeshLayer: 0
  m_StaticEditorFlags: 0
  m_IsActive: 1
--- !u!4 &6447980059725848082
Transform:
  m_ObjectHideFlags: 0
  m_CorrespondingSourceObject: {fileID: 0}
  m_PrefabInstance: {fileID: 0}
  m_PrefabAsset: {fileID: 0}
  m_GameObject: {fileID: 1565946511395478881}
  m_LocalRotation: {x: -0, y: -0, z: -0, w: 1}
  m_LocalPosition: {x: -0.08, y: 0.03, z: -0.51}
  m_LocalScale: {x: 0.19805922, y: 0.19805922, z: 0.19805922}
  m_Children: []
  m_Father: {fileID: 3759631749955591710}
  m_RootOrder: 1
  m_LocalEulerAnglesHint: {x: 0, y: 0, z: 0}
--- !u!212 &6725769151484720118
SpriteRenderer:
  m_ObjectHideFlags: 0
  m_CorrespondingSourceObject: {fileID: 0}
  m_PrefabInstance: {fileID: 0}
  m_PrefabAsset: {fileID: 0}
  m_GameObject: {fileID: 1565946511395478881}
  m_Enabled: 1
  m_CastShadows: 0
  m_ReceiveShadows: 0
  m_DynamicOccludee: 1
  m_MotionVectors: 1
  m_LightProbeUsage: 1
  m_ReflectionProbeUsage: 1
  m_RayTracingMode: 0
  m_RayTraceProcedural: 0
  m_RenderingLayerMask: 1
  m_RendererPriority: 0
  m_Materials:
  - {fileID: 10754, guid: 0000000000000000f000000000000000, type: 0}
  m_StaticBatchInfo:
    firstSubMesh: 0
    subMeshCount: 0
  m_StaticBatchRoot: {fileID: 0}
  m_ProbeAnchor: {fileID: 0}
  m_LightProbeVolumeOverride: {fileID: 0}
  m_ScaleInLightmap: 1
  m_ReceiveGI: 1
  m_PreserveUVs: 0
  m_IgnoreNormalsForChartDetection: 0
  m_ImportantGI: 0
  m_StitchLightmapSeams: 1
  m_SelectedEditorRenderState: 0
  m_MinimumChartSize: 4
  m_AutoUVMaxDistance: 0.5
  m_AutoUVMaxAngle: 89
  m_LightmapParameters: {fileID: 0}
  m_SortingLayerID: 0
  m_SortingLayer: 0
  m_SortingOrder: 0
  m_Sprite: {fileID: 21300000, guid: c1ffdf9eb4e41419fbc2a6b0ecd3da67, type: 3}
  m_Color: {r: 1, g: 1, b: 1, a: 1}
  m_FlipX: 0
  m_FlipY: 0
  m_DrawMode: 0
  m_Size: {x: 22.24, y: 16.68}
  m_AdaptiveModeThreshold: 0.5
  m_SpriteTileMode: 0
  m_WasSpriteAssigned: 1
  m_MaskInteraction: 0
  m_SpriteSortPoint: 0
--- !u!65 &6812914090127636808
BoxCollider:
  m_ObjectHideFlags: 0
  m_CorrespondingSourceObject: {fileID: 0}
  m_PrefabInstance: {fileID: 0}
  m_PrefabAsset: {fileID: 0}
  m_GameObject: {fileID: 2395778304189981438}
  m_Material: {fileID: 0}
  m_IsTrigger: 0
  m_Enabled: 1
  serializedVersion: 2
  m_Size: {x: 0.15000004, y: 0.15000002, z: 0.14999999}
  m_Center: {x: 0.000000011175871, y: -0.000000011175871, z: 0}
--- !u!1 &3759631749955591705
GameObject:
  m_ObjectHideFlags: 0
  m_CorrespondingSourceObject: {fileID: 0}
  m_PrefabInstance: {fileID: 0}
  m_PrefabAsset: {fileID: 0}
  serializedVersion: 6
  m_Component:
  - component: {fileID: 3759631749955591710}
  - component: {fileID: -6028907365094861731}
  m_Layer: 0
  m_Name: Event_Telefon
  m_TagString: Untagged
  m_Icon: {fileID: 0}
  m_NavMeshLayer: 0
  m_StaticEditorFlags: 0
  m_IsActive: 1
--- !u!4 &3759631749955591710
Transform:
  m_ObjectHideFlags: 0
  m_CorrespondingSourceObject: {fileID: 0}
  m_PrefabInstance: {fileID: 0}
  m_PrefabAsset: {fileID: 0}
  m_GameObject: {fileID: 3759631749955591705}
  m_LocalRotation: {x: -0, y: -0, z: -0, w: 1}
  m_LocalPosition: {x: 5.5, y: -2.125, z: 9.5}
  m_LocalScale: {x: 1, y: 1, z: 1}
  m_Children:
  - {fileID: 3059161306480556100}
  - {fileID: 6447980059725848082}
  m_Father: {fileID: 0}
  m_RootOrder: 0
  m_LocalEulerAnglesHint: {x: 0, y: 0, z: 0}
--- !u!114 &-6028907365094861731
MonoBehaviour:
  m_ObjectHideFlags: 0
  m_CorrespondingSourceObject: {fileID: 0}
  m_PrefabInstance: {fileID: 0}
  m_PrefabAsset: {fileID: 0}
  m_GameObject: {fileID: 3759631749955591705}
  m_Enabled: 1
  m_EditorHideFlags: 0
  m_Script: {fileID: 11500000, guid: baa198bdfc8089d42acdde6b862cdff8, type: 3}
  m_Name: 
  m_EditorClassIdentifier: 
  MainSkill: 32
  SubSkillOne: 4
  SubSkillTwo: 0
  rdmNumberMain: 0
  rdmNumberSubOne: 0
  rdmNumberSubTwo: 0
--- !u!1001 &3314344200427397039
PrefabInstance:
  m_ObjectHideFlags: 0
  serializedVersion: 2
  m_Modification:
    m_TransformParent: {fileID: 3759631749955591710}
    m_Modifications:
    - target: {fileID: -8679921383154817045, guid: 55e2e242cabc74dd7b9329a840952978, type: 3}
      propertyPath: m_LocalPosition.x
      value: -0.010000229
      objectReference: {fileID: 0}
    - target: {fileID: -8679921383154817045, guid: 55e2e242cabc74dd7b9329a840952978, type: 3}
      propertyPath: m_LocalPosition.y
      value: -0.03999996
      objectReference: {fileID: 0}
    - target: {fileID: -8679921383154817045, guid: 55e2e242cabc74dd7b9329a840952978, type: 3}
      propertyPath: m_LocalPosition.z
      value: -0.46000004
      objectReference: {fileID: 0}
    - target: {fileID: -8679921383154817045, guid: 55e2e242cabc74dd7b9329a840952978, type: 3}
      propertyPath: m_LocalRotation.x
      value: -0
      objectReference: {fileID: 0}
    - target: {fileID: -8679921383154817045, guid: 55e2e242cabc74dd7b9329a840952978, type: 3}
      propertyPath: m_LocalRotation.y
      value: 1
      objectReference: {fileID: 0}
    - target: {fileID: -8679921383154817045, guid: 55e2e242cabc74dd7b9329a840952978, type: 3}
      propertyPath: m_LocalRotation.z
      value: -0
      objectReference: {fileID: 0}
    - target: {fileID: -8679921383154817045, guid: 55e2e242cabc74dd7b9329a840952978, type: 3}
      propertyPath: m_LocalRotation.w
      value: 0
      objectReference: {fileID: 0}
    - target: {fileID: -8679921383154817045, guid: 55e2e242cabc74dd7b9329a840952978, type: 3}
      propertyPath: m_RootOrder
      value: 0
      objectReference: {fileID: 0}
    - target: {fileID: -8679921383154817045, guid: 55e2e242cabc74dd7b9329a840952978, type: 3}
      propertyPath: m_LocalEulerAnglesHint.x
      value: 0
      objectReference: {fileID: 0}
    - target: {fileID: -8679921383154817045, guid: 55e2e242cabc74dd7b9329a840952978, type: 3}
      propertyPath: m_LocalEulerAnglesHint.y
      value: 180
      objectReference: {fileID: 0}
    - target: {fileID: -8679921383154817045, guid: 55e2e242cabc74dd7b9329a840952978, type: 3}
      propertyPath: m_LocalEulerAnglesHint.z
      value: 0
      objectReference: {fileID: 0}
    - target: {fileID: -8679921383154817045, guid: 55e2e242cabc74dd7b9329a840952978, type: 3}
      propertyPath: m_LocalScale.x
      value: 47.267483
      objectReference: {fileID: 0}
    - target: {fileID: -8679921383154817045, guid: 55e2e242cabc74dd7b9329a840952978, type: 3}
      propertyPath: m_LocalScale.y
      value: 22.509323
      objectReference: {fileID: 0}
    - target: {fileID: -8679921383154817045, guid: 55e2e242cabc74dd7b9329a840952978, type: 3}
      propertyPath: m_LocalScale.z
      value: 0.542906
      objectReference: {fileID: 0}
    - target: {fileID: -7511558181221131132, guid: 55e2e242cabc74dd7b9329a840952978, type: 3}
      propertyPath: m_Materials.Array.data[0]
      value: 
      objectReference: {fileID: 2100000, guid: 15a76bf05eb4f433ab93b34cee1cabf9, type: 2}
    - target: {fileID: 919132149155446097, guid: 55e2e242cabc74dd7b9329a840952978, type: 3}
      propertyPath: m_Name
      value: EventBoard
      objectReference: {fileID: 0}
    m_RemovedComponents: []
  m_SourcePrefab: {fileID: 100100000, guid: 55e2e242cabc74dd7b9329a840952978, type: 3}
--- !u!1 &2395778304189981438 stripped
GameObject:
  m_CorrespondingSourceObject: {fileID: 919132149155446097, guid: 55e2e242cabc74dd7b9329a840952978, type: 3}
  m_PrefabInstance: {fileID: 3314344200427397039}
  m_PrefabAsset: {fileID: 0}
--- !u!4 &3059161306480556100 stripped
Transform:
  m_CorrespondingSourceObject: {fileID: -8679921383154817045, guid: 55e2e242cabc74dd7b9329a840952978, type: 3}
  m_PrefabInstance: {fileID: 3314344200427397039}
  m_PrefabAsset: {fileID: 0}
